src/waveform.vcd
$date
	Wed Jul 30 19:35:24 2025
$end
$version
	QuestaSim Version 10.6c
$end
$timescale
	1ns
$end

$scope module top $end
$var reg 1 ! clk $end

$scope module DUT $end
$var parameter 32 " DW $end
$var parameter 32 # CW $end
$var wire 1 $ OPA [7] $end
$var wire 1 % OPA [6] $end
$var wire 1 & OPA [5] $end
$var wire 1 ' OPA [4] $end
$var wire 1 ( OPA [3] $end
$var wire 1 ) OPA [2] $end
$var wire 1 * OPA [1] $end
$var wire 1 + OPA [0] $end
$var wire 1 , OPB [7] $end
$var wire 1 - OPB [6] $end
$var wire 1 . OPB [5] $end
$var wire 1 / OPB [4] $end
$var wire 1 0 OPB [3] $end
$var wire 1 1 OPB [2] $end
$var wire 1 2 OPB [1] $end
$var wire 1 3 OPB [0] $end
$var wire 1 4 CLK $end
$var wire 1 5 RST $end
$var wire 1 6 CE $end
$var wire 1 7 MODE $end
$var wire 1 8 CIN $end
$var wire 1 9 CMD [3] $end
$var wire 1 : CMD [2] $end
$var wire 1 ; CMD [1] $end
$var wire 1 < CMD [0] $end
$var wire 1 = INP_VALID [1] $end
$var wire 1 > INP_VALID [0] $end
$var reg 10 ? RES [9:0] $end
$var reg 1 @ COUT $end
$var reg 1 A OFLOW $end
$var reg 1 B G $end
$var reg 1 C E $end
$var reg 1 D L $end
$var reg 1 E ERR $end
$var reg 8 F OPA_1 [7:0] $end
$var reg 8 G OPB_1 [7:0] $end
$var reg 8 H oprd1 [7:0] $end
$var reg 8 I oprd2 [7:0] $end
$var reg 4 J CMD_tmp [3:0] $end
$var reg 8 K AU_out_tmp1 [7:0] $end
$var reg 8 L AU_out_tmp2 [7:0] $end
$var reg 5 M wait_counter [4:0] $end
$var reg 1 N oprd1_valid $end
$var reg 1 O oprd2_valid $end
$upscope $end
$upscope $end
$enddefinitions $end
#0
$dumpvars
0!
b0zzzzzzzzz ?
z@
zA
zB
zC
zD
zE
bx F
bx G
bx H
bx I
bx J
bx K
bx L
bx M
xN
xO
b1000 "
b100 #
04
x>
x=
x+
x*
x)
x(
x'
x&
x%
x$
x3
x2
x1
x0
x/
x.
x-
x,
x8
x5
x<
x;
x:
x9
x6
x7
$end
#5
1!
14
#10
0!
04
15
#15
1!
14
b0 H
b0 I
b0 J
b0 M
0N
0O
#20
0!
04
05
#25
1!
14
17
16
13
02
11
10
1/
0.
0-
1,
0+
1*
1)
1(
0'
1&
0%
1$
0<
0;
0:
09
1>
1=
08
#30
0!
04
#35
1!
14
b10101110 H
b10011101 I
1N
1O
#40
0!
04
#45
1!
14
b101001011 ?
1@
03
01
1+
0*
0)
1;
1:
0>
#50
0!
04
#55
1!
14
b0zzzzzzzzz ?
z@
b101001011 ?
1@
b10011000 I
b110 J
#60
0!
04
#65
1!
14
b0zzzzzzzzz ?
z@
b10010111 ?
13
12
11
00
0/
1.
1-
0,
1*
1)
0(
1'
1%
1<
18
#70
0!
04
#75
1!
14
b0zzzzzzzzz ?
b10010111 ?
b1100111 I
b111 J
#80
0!
04
#85
1!
14
b0zzzzzzzzz ?
b1101000 ?
07
02
01
10
1/
0.
0-
1,
0)
0'
0&
0%
0:
1>
08
#90
0!
04
#95
1!
14
b0zzzzzzzzz ?
b10011000 ?
b10000011 H
b10011001 I
b11 J
#100
0!
04
#105
1!
14
b0zzzzzzzzz ?
b1100100 ?
17
03
11
00
0/
1.
0+
0*
1(
1'
1&
1%
0$
0;
18
#110
0!
04
#115
1!
14
b0zzzzzzzzz ?
1A
b1111101001 ?
b1111000 H
b10100100 I
b1 J
#120
0!
04
#125
1!
14
b0zzzzzzzzz ?
zA
1A
b1111010100 ?
07
13
10
1/
0.
0,
1)
0'
0&
1;
19
0>
08
#130
0!
04
#135
1!
14
b0zzzzzzzzz ?
zA
b11011111 ?
b11101 I
b1011 J
#140
0!
04
#145
1!
14
b0zzzzzzzzz ?
b111010 ?
12
1.
1,
1*
0(
1'
1&
1$
0;
1:
09
1>
18
#150
0!
04
#155
1!
14
b0zzzzzzzzz ?
b111010 ?
b11110110 H
b10111111 I
b101 J
#160
0!
04
#165
1!
14
b0zzzzzzzzz ?
b10110110 ?
02
0,
1+
0*
0'
0<
1;
0=
08
#170
0!
04
#175
1!
14
b0zzzzzzzzz ?
b10110110 ?
b11100101 H
b110 J
#180
0!
04
#185
1!
14
b0zzzzzzzzz ?
b11010 ?
17
03
0/
0.
1-
1*
0)
1(
0&
0$
1<
0;
18
#190
0!
04
#195
1!
14
b0zzzzzzzzz ?
b10111110 ?
b1001011 H
b101 J
#200
0!
04
#205
1!
14
b0zzzzzzzzz ?
b1001010 ?
07
12
1/
1.
0+
0*
0(
0%
0<
1;
0:
19
0>
1=
08
#210
0!
04
#215
1!
14
b0zzzzzzzzz ?
b1011 ?
b1111110 I
b1010 J
#220
0!
04
#225
1!
14
b0zzzzzzzzz ?
b11111100 ?
17
02
00
0/
0.
1+
1&
0;
1:
09
1>
0=
#230
0!
04
#235
1!
14
b0zzzzzzzzz ?
b100001 H
b100 J
b10010110 K
b1111110 L
bx ?
#240
0!
04
#245
1!
14
b0zzzzzzzzz ?
b100001 ?
07
13
12
01
10
1/
1,
1*
1)
1'
0&
1%
0:
19
18
#250
0!
04
#255
1!
14
b0zzzzzzzzz ?
b1011111 ?
b1010111 H
b1000 J
#260
0!
04
#265
1!
14
b0zzzzzzzzz ?
b1010111 ?
03
02
1.
0,
0+
0*
0)
0'
1&
0%
1$
1<
#270
0!
04
#275
1!
14
b0zzzzzzzzz ?
b1010111 ?
b10100000 H
b1001 J
#280
0!
04
#285
1!
14
b0zzzzzzzzz ?
b1000000 ?
17
13
12
11
0/
1,
1+
1)
1(
0&
0$
0<
1=
08
#290
0!
04
#295
1!
14
b0zzzzzzzzz ?
b1101 H
b11101111 I
b1000 J
b10100001 K
b1111111 L
b111010100 ?
#300
0!
04
#305
1!
14
b0zzzzzzzzz ?
1D
07
00
0.
0-
0+
1*
0)
1'
1$
1:
09
18
#310
0!
04
#315
1!
14
zD
b1101 ?
b10011010 H
b10000111 I
b100 J
#320
0!
04
#325
1!
14
b0zzzzzzzzz ?
b11101 ?
02
01
10
0,
0*
1)
1%
1<
1;
0>
08
#330
0!
04
#335
1!
14
b0zzzzzzzzz ?
b11101 ?
b1001 I
b111 J
#340
0!
04
#345
1!
14
b0zzzzzzzzz ?
b11110110 ?
1-
1,
0)
0(
0'
0<
0;
0:
1>
#350
0!
04
#355
1!
14
b0zzzzzzzzz ?
b11110110 ?
b11000000 H
b11001001 I
b0 J
#360
0!
04
#365
1!
14
b0zzzzzzzzz ?
b11000000 ?
12
00
1.
1+
1)
1(
1&
0$
1;
#370
0!
04
#375
1!
14
b0zzzzzzzzz ?
b11000000 ?
b1101101 H
b11100011 I
b10 J
#380
0!
04
#385
1!
14
b0zzzzzzzzz ?
b1 ?
02
10
1/
0.
0,
0+
0)
0(
0&
0%
1<
0;
1:
19
#390
0!
04
#395
1!
14
b0zzzzzzzzz ?
b1 ?
b0 H
b1011001 I
b1101 J
#400
0!
04
#405
1!
14
b0zzzzzzzzz ?
b0 F
b0 G
b0 ?
0E
17
12
00
1.
0-
1,
1'
1&
0<
1;
0:
09
18
#410
0!
04
#415
1!
14
b0zzzzzzzzz ?
zE
b110000 H
b10110011 I
b10 J
#420
0!
04
#425
1!
14
b11100100 ?
0@
07
1*
1)
0&
1<
0;
08
#430
0!
04
#435
1!
14
b0zzzzzzzzz ?
z@
b1 ?
b10110 H
b1 J
#440
0!
04
#445
1!
14
b0zzzzzzzzz ?
b11101101 ?
17
11
10
0/
0.
0,
1+
1(
0'
1%
1$
1;
18
#450
0!
04
#455
1!
14
b0zzzzzzzzz ?
1A
b1101100011 ?
b11001111 H
b1111 I
b11 J
#460
0!
04
#465
1!
14
b0zzzzzzzzz ?
zA
0A
b10111111 ?
07
02
1.
1-
0+
0)
1&
0$
0<
0;
1:
19
08
#470
0!
04
#475
1!
14
b0zzzzzzzzz ?
zA
b110000 ?
b1101010 H
b1101101 I
b1100 J
#480
0!
04
#485
1!
14
b0zzzzzzzzz ?
b11010100 F
b11010100 G
b1001101 ?
1E
03
00
0-
1,
1+
1'
0%
1<
1;
0:
09
#490
0!
04
#495
1!
14
b0zzzzzzzzz ?
zE
b1001101 ?
1E
b111011 H
b10100100 I
b11 J
#500
0!
04
#505
1!
14
b0zzzzzzzzz ?
zE
b1000000 ?
17
10
1-
0+
0*
1)
0(
0'
0&
1$
0;
1:
0=
#510
0!
04
#515
1!
14
b0zzzzzzzzz ?
1A
b1110010111 ?
b10000100 H
b101 J
#520
0!
04
#525
1!
14
b0zzzzzzzzz ?
zA
b10000011 ?
01
1/
0-
0,
1+
1*
1(
1'
1%
0:
1=
18
#530
0!
04
#535
1!
14
b0zzzzzzzzz ?
b10000011 ?
b11011111 H
b111000 I
b1 J
#540
0!
04
#545
1!
14
b0zzzzzzzzz ?
0A
b10100111 ?
07
11
00
0/
1-
1,
0+
0*
0)
0'
1&
0%
0$
1;
19
0>
08
#550
0!
04
#555
1!
14
b0zzzzzzzzz ?
zA
b11100111 ?
b11100100 I
b1011 J
#560
0!
04
#565
1!
14
b0zzzzzzzzz ?
b11001000 ?
0,
1)
1'
1$
0;
1:
09
1>
#570
0!
04
#575
1!
14
b0zzzzzzzzz ?
b11001000 ?
b10111100 H
b1100100 I
b101 J
#580
0!
04
#585
1!
14
b0zzzzzzzzz ?
b100111 ?
17
01
10
1/
1,
1+
0)
0(
0'
0$
0<
0=
18
#590
0!
04
#595
1!
14
b0zzzzzzzzz ?
b10111011 ?
b100001 H
b100 J
#600
0!
04
#605
1!
14
b0zzzzzzzzz ?
b100001 ?
07
12
00
0/
0.
0-
1*
1)
0&
1$
0:
19
#610
0!
04
#615
1!
14
b0zzzzzzzzz ?
b1000101 ?
b10000111 H
b1000 J
#620
0!
04
#625
1!
14
b0zzzzzzzzz ?
b10000111 ?
1.
1-
0,
0+
1'
0$
1;
0>
1=
08
#630
0!
04
#635
1!
14
b0zzzzzzzzz ?
b10000111 ?
b1100010 I
b1010 J
#640
0!
04
#645
1!
14
b0zzzzzzzzz ?
b11000100 ?
17
13
02
11
0.
0-
1,
0*
1(
1&
1:
09
18
#650
0!
04
#655
1!
14
b0zzzzzzzzz ?
b10000101 I
b110 J
b1110 K
b1100010 L
b100010 ?
#660
0!
04
#665
1!
14
b0zzzzzzzzz ?
b10000100 ?
#670
0!
04
#675
1!
14
b0zzzzzzzzz ?
b10000100 ?
07
03
12
01
1-
1*
0'
1%
0;
0:
19
1>
0=
#680
0!
04
#685
1!
14
b0zzzzzzzzz ?
b1111000 ?
b1101110 H
b1000 J
#690
0!
04
#695
1!
14
b0zzzzzzzzz ?
b1101110 ?
17
13
02
11
1/
0-
0,
1+
0*
0)
0(
1'
0%
1<
09
1=
#700
0!
04
#705
1!
14
b0zzzzzzzzz ?
1D
b110001 H
b10101 I
b1 J
#710
0!
04
#715
1!
14
zD
0A
b11100 ?
07
1-
0+
0&
1$
0<
1:
08
#720
0!
04
#725
1!
14
b0zzzzzzzzz ?
zA
b11101110 ?
b10010000 H
b1010101 I
b100 J
#730
0!
04
#735
1!
14
b0zzzzzzzzz ?
b11000101 ?
17
03
01
10
0-
1+
1*
1(
0'
0$
0:
19
#740
0!
04
#745
1!
14
b0zzzzzzzzz ?
b10010000 ?
b1011 H
b11000 I
b1000 J
#750
0!
04
#755
1!
14
b0zzzzzzzzz ?
1D
07
13
12
00
1-
0*
1)
0(
1'
09
#760
0!
04
#765
1!
14
zD
b1011 ?
b10101 H
b1010011 I
b0 J
#770
0!
04
#775
1!
14
b0zzzzzzzzz ?
b10001 ?
17
02
1,
0+
0'
1$
18
#780
0!
04
#785
1!
14
b0zzzzzzzzz ?
b1101000 ?
0@
b10000100 H
b11010001 I
#790
0!
04
#795
1!
14
b0zzzzzzzzz ?
z@
b101010101 ?
1@
15
07
03
0/
0-
0,
0)
0$
0>
0=
08
#800
0!
04
#805
1!
14
b0zzzzzzzzz ?
z@
b0 K
b0 L
b0 H
b0 I
0N
0O
#810
0!
04
#815
1!
14
#820
0!
04
#825
1!
14
05
17
13
11
1/
1-
1'
1$
1<
1:
1>
#830
0!
04
#835
1!
14
b10010000 H
b101 J
1N
#840
0!
04
#845
1!
14
07
12
01
10
1.
1,
1(
1&
1%
0$
0:
1=
18
#850
0!
04
#855
1!
14
b1111000 H
b11111011 I
b1 J
1O
#860
0!
04
#865
1!
14
b10000111 ?
17
03
11
0.
0-
0,
1+
1*
1)
0(
0&
1$
1;
1:
0>
#870
0!
04
#875
1!
14
b0zzzzzzzzz ?
1A
b1101111101 ?
b11110 I
b111 J
#880
0!
04
#885
1!
14
b0zzzzzzzzz ?
zA
b11111 ?
15
07
02
01
00
0/
0+
0*
0)
0'
0%
0$
0<
0;
0:
0=
08
#890
0!
04
#895
1!
14
b0zzzzzzzzz ?
b0 H
b0 I
b0 J
0N
0O
#900
0!
04
#905
1!
14
#910
0!
04
#915
1!
14
05
06
12
11
1/
1-
1*
1)
1(
1'
1;
19
1=
#920
0!
04
#925
1!
14
b1010110 I
b1010 J
1O
#930
0!
04
#935
1!
14
15
16
02
01
0/
0-
0*
0)
0(
0'
0;
09
0=
#940
0!
04
#945
1!
14
b0 I
b0 J
0O
#950
0!
04
#955
1!
14
#960
0!
04
#965
1!
14
#970
0!
04
#975
1!
14
#980
0!
04
#985
1!
14
#990
0!
04
#995
1!
14
05
06
11
10
1.
1*
1)
1'
1&
1<
1:
19
1>
1=
#1000
0!
04
#1005
1!
14
b110110 H
b101100 I
b1101 J
1N
1O
#1010
0!
04
#1015
1!
14
#1020
0!
04
#1025
1!
14
17
16
13
00
1-
1,
0*
1%
1$
1;
0:
09
0>
0=
18
#1030
0!
04
#1035
1!
14
03
12
1/
0,
1(
0&
0<
0;
1:
1=
08
#1040
0!
04
#1045
1!
14
b1110110 I
b100 J
#1050
0!
04
#1055
1!
14
b110110 ?
13
02
01
0/
0.
1+
0)
0'
1&
0$
1<
#1060
0!
04
#1065
1!
14
b0zzzzzzzzz ?
b110110 ?
b1000001 I
b101 J
#1070
0!
04
#1075
1!
14
b0zzzzzzzzz ?
b110101 ?
07
03
1.
0-
0+
1)
0(
0=
18
#1080
0!
04
#1085
1!
14
b0zzzzzzzzz ?
b10001000 ?
12
1-
1*
0&
0%
1;
0:
19
1>
#1090
0!
04
#1095
1!
14
b0zzzzzzzzz ?
b10001000 ?
b110 H
b1011 J
#1100
0!
04
#1105
1!
14
b0zzzzzzzzz ?
b10000010 ?
17
13
11
10
0.
0*
1(
1&
1%
0<
1:
0>
08
#1110
0!
04
#1115
1!
14
b0zzzzzzzzz ?
#1120
0!
04
#1125
1!
14
03
1/
1.
0-
1*
0&
0%
1$
0;
0:
#1130
0!
04
#1135
1!
14
07
02
0/
0.
1-
1,
0*
0)
1&
1%
0$
1=
18
#1140
0!
04
#1145
1!
14
b10000010 ?
b11001100 I
b1000 J
#1150
0!
04
#1155
1!
14
b0zzzzzzzzz ?
b110 ?
17
00
0&
1;
1:
09
1>
0=
08
#1160
0!
04
#1165
1!
14
b0zzzzzzzzz ?
1D
b1001000 H
b110 J
#1170
0!
04
#1175
1!
14
zD
b11001011 ?
13
12
1/
0-
0,
1)
1'
0%
0;
0:
0>
#1180
0!
04
#1185
1!
14
b0zzzzzzzzz ?
b11001011 ?
07
02
01
0/
1-
1*
0)
0'
1&
1%
1<
1;
18
#1190
0!
04
#1195
1!
14
b0zzzzzzzzz ?
b10110111 ?
11
10
1/
1.
0-
1,
1)
1'
0&
1$
0<
0;
#1200
0!
04
#1205
1!
14
b0zzzzzzzzz ?
b10110111 ?
01
00
0/
0.
1-
0,
0*
0'
0%
1;
19
1>
#1210
0!
04
#1215
1!
14
b0zzzzzzzzz ?
b10110111 ?
b10001100 H
b1010 J
#1220
0!
04
#1225
1!
14
b0zzzzzzzzz ?
b10011000 ?
17
03
11
10
1/
1.
0-
1,
1+
1*
0)
1&
1%
0$
0;
1:
0>
08
#1230
0!
04
#1235
1!
14
b0zzzzzzzzz ?
b11000 K
b11001100 L
b0 ?
#1240
0!
04
#1245
1!
14
b0zzzzzzzzz ?
b1101001100 ?
07
01
00
0/
0.
1-
0,
0*
1)
0(
0&
0%
09
#1250
0!
04
#1255
1!
14
b0zzzzzzzzz ?
b10011000 ?
#1260
0!
04
#1265
1!
14
b0zzzzzzzzz ?
b10011000 ?
13
12
11
1.
0-
0+
1%
1<
19
1=
#1270
0!
04
#1275
1!
14
b0zzzzzzzzz ?
b10011000 ?
b100111 I
b1101 J
03
02
10
1-
1,
1+
1(
1'
0%
18
#1280
0!
04
#1285
1!
14
b0zzzzzzzzz ?
b1000110 F
b10010001 G
b11001 ?
0E
b11101100 I
12
1*
0)
1%
1$
#1290
0!
04
#1295
1!
14
b0zzzzzzzzz ?
zE
b10001100 F
b10001100 G
b11001000 ?
0E
b11101110 I
00
1/
0,
0(
0%
0$
#1300
0!
04
#1305
1!
14
b0zzzzzzzzz ?
zE
b100011 G
b110010 ?
0E
b1110110 I
13
01
0/
0.
0-
1,
0*
1)
0'
1&
1%
1$
#1310
0!
04
#1315
1!
14
b0zzzzzzzzz ?
zE
b110010 ?
0E
b10000011 I
10
1/
1.
1-
0,
0+
1*
0&
0%
0$
08
#1320
0!
04
#1325
1!
14
b0zzzzzzzzz ?
zE
b1000110 F
b10010001 G
b10010001 ?
0E
b1111011 I
03
0-
1,
0)
1&
1%
1$
18
#1330
0!
04
#1335
1!
14
b0zzzzzzzzz ?
zE
b10010001 ?
0E
b10111010 I
02
11
0.
0,
1+
0*
1)
1(
1'
0%
0$
#1340
0!
04
#1345
1!
14
b0zzzzzzzzz ?
zE
b10001100 F
b100011 G
b100011 ?
0E
b11100 I
13
12
1-
0&
1>
0=
#1350
0!
04
#1355
1!
14
b0zzzzzzzzz ?
zE
b10001100 G
b11001000 ?
0E
b11101 H
#1360
0!
04
#1365
1!
14
b0zzzzzzzzz ?
zE
b11101 F
b11101 G
b11010001 ?
0E
03
00
0/
1.
0-
1,
0+
0)
1&
0<
0>
1=
08
#1370
0!
04
#1375
1!
14
b0zzzzzzzzz ?
zE
b11010001 ?
0E
b10100110 I
b1100 J
13
02
1-
1+
1*
0(
0&
1%
1$
18
#1380
0!
04
#1385
1!
14
b0zzzzzzzzz ?
zE
b1110100 G
b1000111 ?
1E
b11100101 I
03
12
01
10
1/
1)
0'
0$
08
#1390
0!
04
#1395
1!
14
b0zzzzzzzzz ?
zE
b111010 F
b111010 G
b10100011 ?
1E
b11111010 I
02
0/
0-
1$
18
#1400
0!
04
#1405
1!
14
b0zzzzzzzzz ?
zE
b11101 F
b1110100 G
b1110100 ?
1E
b10101000 I
00
1/
0.
0*
1(
1&
0%
0$
08
#1410
0!
04
#1415
1!
14
b0zzzzzzzzz ?
zE
b11101 G
b11101 ?
1E
b10010000 I
13
12
11
10
1.
1-
1*
0(
1'
1$
1>
18
#1420
0!
04
#1425
1!
14
b0zzzzzzzzz ?
zE
b11101 ?
1E
b10110111 H
b11111111 I
#1430
0!
04
#1435
1!
14
b0zzzzzzzzz ?
zE
b1101111 F
b10111101 G
b11011011 ?
1E
03
01
00
0.
0-
0)
0'
1%
0$
09
0=
08
#1440
0!
04
#1445
1!
14
b0zzzzzzzzz ?
zE
b11011011 ?
1E
b1100011 H
b100 J
13
02
0*
1)
1(
1'
0%
#1450
0!
04
#1455
1!
14
b0zzzzzzzzz ?
zE
b10011100 ?
b111101 H
03
11
0/
1*
0)
0'
0&
1%
1$
1=
18
#1460
0!
04
#1465
1!
14
b0zzzzzzzzz ?
b11000010 ?
b11001011 H
b10000100 I
#1470
0!
04
#1475
1!
14
b0zzzzzzzzz ?
b1001111 ?
12
10
1/
1.
0+
1)
1'
1&
1<
19
0>
08
#1480
0!
04
#1485
1!
14
b0zzzzzzzzz ?
b1001111 ?
b10111110 I
b1101 J
01
1-
1+
0*
0(
0&
0%
#1490
0!
04
#1495
1!
14
b0zzzzzzzzz ?
b11001011 F
b11110010 G
b101111 ?
0E
b11111010 I
13
02
11
0/
0-
0,
0)
1(
0'
1&
1%
0$
#1500
0!
04
#1505
1!
14
b0zzzzzzzzz ?
zE
b11110010 ?
0E
b101101 I
01
00
0.
1,
0&
1$
18
#1510
0!
04
#1515
1!
14
b0zzzzzzzzz ?
zE
b11100101 F
b11100101 G
b1011110 ?
0E
b10000001 I
12
11
10
1*
1)
1'
1&
08
#1520
0!
04
#1525
1!
14
b0zzzzzzzzz ?
zE
b11100101 ?
0E
b10001111 I
01
1/
0+
0*
0(
0$
18
#1530
0!
04
#1535
1!
14
b0zzzzzzzzz ?
zE
b1111001 G
b10010111 ?
0E
b10011011 I
00
1*
0)
1(
0'
0&
08
#1540
0!
04
#1545
1!
14
b0zzzzzzzzz ?
zE
b1111001 ?
0E
b10010011 I
02
10
0/
1.
1-
0,
1+
0*
1'
1&
0%
18
#1550
0!
04
#1555
1!
14
b0zzzzzzzzz ?
zE
b1111001 ?
0E
b1101001 I
00
1/
0.
1,
1*
1)
0'
1$
08
#1560
0!
04
#1565
1!
14
b0zzzzzzzzz ?
zE
b11100101 G
b11100101 ?
0E
b11010001 I
03
12
0/
1.
0)
0(
1%
#1570
0!
04
#1575
1!
14
b0zzzzzzzzz ?
zE
b11100101 ?
0E
b11100010 I
13
10
0+
1(
0%
0$
18
#1580
0!
04
#1585
1!
14
b0zzzzzzzzz ?
zE
b11001011 F
b11110010 G
b11110010 ?
0E
b11101011 I
02
11
0,
1+
0(
1'
1$
1>
#1590
0!
04
#1595
1!
14
b0zzzzzzzzz ?
zE
b11100101 F
b1111001 G
b1111001 ?
0E
b10110011 H
b1101101 I
#1600
0!
04
#1605
1!
14
b0zzzzzzzzz ?
zE
b11011001 F
b11011001 G
b10011101 ?
0E
12
00
0.
1,
0+
0*
1(
0&
1%
0>
08
#1610
0!
04
#1615
1!
14
b0zzzzzzzzz ?
zE
b10011101 ?
0E
b11000111 I
03
02
01
10
1/
1.
0-
0,
1*
1)
1&
18
#1620
0!
04
#1625
1!
14
b0zzzzzzzzz ?
zE
b1110110 G
b1100111 ?
0E
b111000 I
#1630
0!
04
#1635
1!
14
b0zzzzzzzzz ?
zE
b10110011 F
b10110011 G
b10110011 ?
0E
13
11
00
0/
0.
1-
0*
0(
0'
0&
0<
08
#1640
0!
04
#1645
1!
14
b0zzzzzzzzz ?
zE
b10110011 ?
0E
b1000101 I
b1100 J
12
01
10
1.
1,
1+
1*
1(
0$
#1650
0!
04
#1655
1!
14
b0zzzzzzzzz ?
zE
b1100111 F
b1100111 G
b1110110 ?
1E
b11101011 I
00
0.
0+
0*
0)
1'
1&
0%
#1660
0!
04
#1665
1!
14
b0zzzzzzzzz ?
zE
b10011101 G
b10011101 ?
1E
b11000011 I
03
02
11
1/
1+
1*
1%
18
#1670
0!
04
#1675
1!
14
b0zzzzzzzzz ?
zE
b10011101 ?
1E
b11010100 I
13
01
0/
1.
0+
1)
0'
0%
1$
#1680
0!
04
#1685
1!
14
b0zzzzzzzzz ?
zE
b10110011 F
b10110011 G
b111011 ?
1E
b11100001 I
12
11
10
1/
0-
0,
1+
0*
0)
0(
0$
08
#1690
0!
04
#1695
1!
14
b0zzzzzzzzz ?
zE
b1100111 F
b1100111 G
b1100111 ?
1E
b111111 I
01
00
0/
1-
1,
0+
1*
1(
1%
1$
#1700
0!
04
#1705
1!
14
b0zzzzzzzzz ?
zE
b10011101 G
b11011001 ?
1E
b11100011 I
1/
0.
0,
0*
0(
1'
0%
18
#1710
0!
04
#1715
1!
14
b0zzzzzzzzz ?
zE
b10011101 ?
1E
b1010011 I
03
02
10
0/
1.
1+
1*
1(
0&
#1720
0!
04
#1725
1!
14
b0zzzzzzzzz ?
zE
b10011101 ?
1E
b1101000 I
11
0.
0*
1)
1%
0$
08
#1730
0!
04
#1735
1!
14
b0zzzzzzzzz ?
zE
b10110011 F
b10110011 G
b10110011 ?
1E
b1001100 I
1*
0)
0(
0'
#1740
0!
04
#1745
1!
14
b0zzzzzzzzz ?
zE
b111011 ?
1E
13
12
01
1.
0-
1,
0+
1)
1$
#1750
0!
04
#1755
1!
14
b0zzzzzzzzz ?
zE
b111011 ?
1E
b10101011 I
11
1/
0.
1-
0*
1(
1&
0$
#1760
0!
04
#1765
1!
14
b0zzzzzzzzz ?
zE
b1100111 F
b10011101 G
b10011101 ?
1E
b11011111 I
0/
0-
0,
1*
0(
1$
#1770
0!
04
#1775
1!
14
b0zzzzzzzzz ?
zE
b11011001 ?
1E
b1111 I
03
02
01
00
1,
1+
0*
0$
#1780
0!
04
#1785
1!
14
b0zzzzzzzzz ?
zE
b11011001 ?
b10000000 I
11
10
1.
1-
0+
1*
1(
18
#1790
0!
04
#1795
1!
14
b0zzzzzzzzz ?
b10110011 F
b10110011 G
b10110011 ?
1E
b11101100 I
1/
0-
0(
1'
0&
0%
08
#1800
0!
04
#1805
1!
14
b0zzzzzzzzz ?
zE
b111011 ?
1E
b10111100 I
13
01
0/
0.
1-
1+
0*
0)
1(
1%
18
#1810
0!
04
#1815
1!
14
b0zzzzzzzzz ?
zE
b111011 ?
1E
b11001001 I
12
11
1/
1.
1)
1&
0%
1$
1;
0:
09
08
#1820
0!
04
#1825
1!
14
b0zzzzzzzzz ?
zE
b1100111 F
b1100111 G
b1100111 ?
1E
b11111111 I
b10 J
01
0-
0(
0&
18
#1830
0!
04
#1835
1!
14
b0zzzzzzzzz ?
zE
b1 ?
b10111011 I
03
0+
1*
0)
1&
#1840
0!
04
#1845
1!
14
b0zzzzzzzzz ?
b1 ?
b10111010 I
13
02
00
0/
0.
0,
1+
1(
0$
#1850
0!
04
#1855
1!
14
b0zzzzzzzzz ?
b1 ?
b1 I
03
11
10
1/
0+
1)
0(
0'
1%
08
#1860
0!
04
#1865
1!
14
b0zzzzzzzzz ?
b1 ?
b11100 I
13
01
0/
1.
1-
1,
0*
1(
1'
0&
#1870
0!
04
#1875
1!
14
b0zzzzzzzzz ?
b1 ?
b11101001 I
12
11
00
0(
0%
1$
#1880
0!
04
#1885
1!
14
b0zzzzzzzzz ?
b1 ?
b11100111 I
03
10
0.
0-
0,
1*
1(
1&
1%
0$
18
#1890
0!
04
#1895
1!
14
b0zzzzzzzzz ?
b1 ?
b1110 I
02
01
1.
0*
1$
#1900
0!
04
#1905
1!
14
b0zzzzzzzzz ?
b1 ?
b101000 I
13
12
1/
1,
1+
0'
0$
#1910
0!
04
#1915
1!
14
b0zzzzzzzzz ?
b1 ?
b10111011 I
11
0/
0)
0%
1$
08
#1920
0!
04
#1925
1!
14
b0zzzzzzzzz ?
b1 ?
b10101111 I
01
00
0,
0+
1*
0(
1'
0$
#1930
0!
04
#1935
1!
14
b0zzzzzzzzz ?
b1 ?
b100011 I
03
02
11
0.
1,
0*
0'
#1940
0!
04
#1945
1!
14
b0zzzzzzzzz ?
b1 ?
b10000100 I
13
12
01
1.
0,
1*
1)
1'
0&
1%
18
#1950
0!
04
#1955
1!
14
b0zzzzzzzzz ?
b1 ?
b100011 I
10
0.
1,
1+
0*
0)
1(
1&
#1960
0!
04
#1965
1!
14
b0zzzzzzzzz ?
b1 ?
b10001011 I
03
02
1/
0,
0(
0'
0%
08
#1970
0!
04
#1975
1!
14
b0zzzzzzzzz ?
b1 ?
b11000 I
12
11
0/
1.
0+
1'
0&
1%
18
#1980
0!
04
#1985
1!
14
b0zzzzzzzzz ?
b1 ?
b101110 I
02
01
1/
0.
1-
1+
1*
1&
0%
#1990
0!
04
#1995
1!
14
b0zzzzzzzzz ?
b1 ?
b1011000 I
17
00
0-
1,
0+
1(
0'
1%
19
#2000
0!
04
#2005
1!
14
b0zzzzzzzzz ?
b100001100 ?
1@
b10010000 I
b1010 J
13
12
10
0/
1.
1-
0,
0*
0(
1'
#2010
0!
04
#2015
1!
14
b0zzzzzzzzz ?
z@
b1101011 I
b1100110 K
b10010000 L
b1101001100 ?
03
02
1/
0-
1*
1)
0&
1$
#2020
0!
04
#2025
1!
14
b0zzzzzzzzz ?
b111000 I
b1101011 L
b1111010110 ?
0/
1-
1+
0*
0)
1&
#2030
0!
04
#2035
1!
14
b0zzzzzzzzz ?
b1101000 I
b111000 L
b1111111011 ?
12
11
0.
1,
0&
0%
0$
08
#2040
0!
04
#2045
1!
14
b0zzzzzzzzz ?
b11001110 I
b1101000 L
b101110 ?
02
01
0-
0,
0+
1&
#2050
0!
04
#2055
1!
14
b0zzzzzzzzz ?
b1000 I
b11001110 L
b1111111110 ?
12
11
1/
1.
1,
0'
1$
#2060
0!
04
#2065
1!
14
b0zzzzzzzzz ?
b10111110 I
b1000 L
b1110011000 ?
02
00
0/
1+
1'
0&
1%
0$
#2070
0!
04
#2075
1!
14
b0zzzzzzzzz ?
b10100100 I
b10111110 L
b1011110 ?
12
1/
0,
0+
1(
0'
1&
18
#2080
0!
04
#2085
1!
14
b0zzzzzzzzz ?
b110110 I
b10100100 L
b1110101000 ?
02
0/
0.
1+
1)
0(
#2090
0!
04
#2095
1!
14
b0zzzzzzzzz ?
b100 I
b110110 L
b1111000010 ?
1/
1.
1,
0)
1(
0&
0%
1$
08
#2100
0!
04
#2105
1!
14
b0zzzzzzzzz ?
b10110100 I
b100 L
b110000 ?
13
12
10
0.
1-
#2110
0!
04
#2115
1!
14
b0zzzzzzzzz ?
b11011111 I
b10110100 L
b1100010 ?
03
01
00
0/
1.
1)
1&
1%
#2120
0!
04
#2125
1!
14
b0zzzzzzzzz ?
b11100010 I
b11011111 L
b1110110010 ?
02
11
10
0+
1*
0$
18
#2130
0!
04
#2135
1!
14
b0zzzzzzzzz ?
b11101100 I
b11100010 L
b1110000111 ?
#2140
0!
04
